<?xml version="1.0" encoding="UTF-8" standalone="no"?>
<!-- Created with Inkscape (http://www.inkscape.org/) -->

<svg
   xmlns:dc="http://purl.org/dc/elements/1.1/"
   xmlns:cc="http://creativecommons.org/ns#"
   xmlns:rdf="http://www.w3.org/1999/02/22-rdf-syntax-ns#"
   xmlns:svg="http://www.w3.org/2000/svg"
   xmlns="http://www.w3.org/2000/svg"
   xmlns:sodipodi="http://sodipodi.sourceforge.net/DTD/sodipodi-0.dtd"
   xmlns:inkscape="http://www.inkscape.org/namespaces/inkscape"
   version="1.1"
   id="svg3680"
   width="682.66669"
   height="682.66669"
   viewBox="0 0 682.66669 682.66669"
   sodipodi:docname="logo.svg"
   inkscape:version="0.92.1 r15371">
  <metadata
     id="metadata3686">
    <rdf:RDF>
      <cc:Work
         rdf:about="">
        <dc:format>image/svg+xml</dc:format>
        <dc:type
           rdf:resource="http://purl.org/dc/dcmitype/StillImage" />
        <dc:title></dc:title>
      </cc:Work>
    </rdf:RDF>
  </metadata>
  <defs
     id="defs3684" />
  <sodipodi:namedview
     pagecolor="#ffffff"
     bordercolor="#666666"
     borderopacity="1"
     objecttolerance="10"
     gridtolerance="10"
     guidetolerance="10"
     inkscape:pageopacity="0"
     inkscape:pageshadow="2"
     inkscape:window-width="1366"
     inkscape:window-height="705"
     id="namedview3682"
     showgrid="false"
     inkscape:zoom="0.31074028"
     inkscape:cx="291.38005"
     inkscape:cy="472.00811"
     inkscape:window-x="1912"
     inkscape:window-y="155"
     inkscape:window-maximized="1"
     inkscape:current-layer="svg3680" />
  <g
     id="g4555"
     transform="translate(0.4022652,0.80453041)">
    <path
       inkscape:connector-curvature="0"
       id="path3700"
       d="M 3.728889,418.55809 V 248.91313 h 32.04087 32.04087 V 418.55809 588.20305 H 35.769759 3.728889 Z"
       style="fill:#0287cf;fill-opacity:1;stroke-width:1.30637515" />
    <path
       inkscape:connector-curvature="0"
       id="path4507"
       d="M 614.88603,419.41632 V 249.40354 h 32.0408 32.0409 v 170.01278 170.01277 h -32.0409 -32.0408 z"
       style="fill:#0287cf;fill-opacity:1;stroke-width:1.30779064" />
    <path
       sodipodi:nodetypes="cssscscccccscc"
       inkscape:connector-curvature="0"
       id="path4509"
       d="m 501.91463,588.03809 c -67.80513,0.21876 -100.51397,-8.46348 -136.12443,-20.37207 -44.93726,-15.02758 -66.60382,-38.03423 -66.84025,-65.6724 -0.27063,-31.63672 21.26204,-60.50798 68.87784,-92.35224 l 14.96369,-10.00734 v -84.35775 c 0,-79.72705 0.12563,-84.32055 2.28864,-83.68 41.94036,12.42027 95.82581,17.794 178.51341,17.80225 l 53.2925,0.005 v 170.01278 170.01277 l -47.4074,-0.19999 c -26.0741,-0.10998 -56.4779,-0.64608 -67.564,-1.19133 z"
       style="fill:#0299e3;fill-opacity:1;stroke-width:1.30779064" />
    <path
       inkscape:connector-curvature="0"
       id="path4515"
       d="m 65.892369,588.28478 c 0,-0.52574 2.21842,-2.43027 30.77785,-26.42308 14.916221,-12.53112 30.605721,-25.75016 56.517171,-47.61799 3.23678,-2.73167 12.50575,-10.52915 20.5977,-17.32774 8.09196,-6.79859 17.8023,-14.97234 21.57855,-18.16388 3.77624,-3.19154 11.8682,-10.00399 17.98212,-15.13878 6.11392,-5.13479 20.97369,-17.64381 33.02171,-27.79783 29.0466,-24.48033 43.26059,-36.43636 48.22478,-40.56401 l 4.08684,-3.39816 v 57.56748 c 0,58.4762 0.0248,59.18897 2.28699,65.80497 1.5429,4.51229 4.1789,9.52748 7.68975,14.63033 5.21196,7.57531 18.25561,18.30307 29.42027,24.19672 8.65344,4.568 8.84382,4.65699 9.96321,4.65699 0.54435,0 0.98972,0.29425 0.98972,0.65389 0,0.35964 0.44537,0.6539 0.98972,0.6539 0.54434,0 1.50066,0.27021 2.12516,0.60046 2.13341,1.12823 7.33224,3.32291 7.87139,3.32291 0.29601,0 1.75627,0.5885 3.24502,1.30779 1.48875,0.71928 3.1664,1.30779 3.72811,1.30779 0.56172,0 1.53226,0.26557 2.15675,0.59017 0.6245,0.32458 2.45959,0.94663 4.07798,1.38232 1.61839,0.43568 3.53103,1.01933 4.25032,1.29699 0.71928,0.27765 2.4848,0.82658 3.92337,1.21984 1.43857,0.39326 4.67535,1.29179 7.19285,1.99675 5.9691,1.67148 15.41294,3.92305 19.9438,4.75496 1.97804,0.36318 5.06769,0.93659 6.8659,1.27424 10.07503,1.89179 23.67949,3.94392 34.32951,5.17834 18.8091,2.18013 29.0319,3.0023 47.0805,3.78645 6.2937,0.27344 -88.08791,0.55459 -209.73696,0.62477 -121.64904,0.0702 -221.180081,-0.0993 -221.180081,-0.37659 z"
       style="fill:#cdd7db;fill-opacity:1;stroke-width:0.65389532" />
    <path
       inkscape:connector-curvature="0"
       id="path4517"
       d="M 67.810629,418.5954 V 248.91313 l 117.047271,-0.16703 117.04727,-0.16703 -10e-6,72.10814 -2e-5,72.10814 -1.47126,0.57814 c -0.8092,0.31798 -8.38621,6.42275 -16.83781,13.56616 -8.45159,7.14341 -25.66539,21.65189 -38.25287,32.24106 -12.58748,10.58916 -25.53461,21.48738 -28.77139,24.21826 -3.23679,2.73088 -37.56592,31.63933 -76.28696,64.24101 -38.72104,32.60167 -70.591281,59.5822 -70.822751,59.95673 -0.23147,0.37453 -0.69775,0.68096 -1.03616,0.68096 -0.3829,0 -0.61531,-64.09149 -0.61531,-169.68227 z"
       style="fill:#ebedef;fill-opacity:1;stroke-width:0.65389532" />
    <path
       sodipodi:nodetypes="ccsscccscsccsccc"
       inkscape:connector-curvature="0"
       id="path4519"
       d="m 298.79135,486.95363 c -0.68894,-1.57363 -0.22756,-335.14257 0.4675,-337.99524 1.29198,-5.30252 2.9215,-10.56577 4.29459,-13.87122 2.15615,-5.19052 10.25694,-18.62034 14.22397,-23.58106 4.83633,-6.04778 20.06623,-20.71946 26.66419,-25.68687 3.12755,-2.35463 5.89696,-4.54231 6.15423,-4.8615 1.43605,-1.7816 25.52248,-17.55046 32.04298,-20.97783 0.38592,-0.20285 0.6884,76.32888 0.67219,170.0705 l -0.0294,170.43932 -9.43863,6.01086 c -9.32498,5.93849 -27.01819,18.17126 -27.92486,19.30676 -0.25728,0.32221 -2.1518,1.81665 -4.21003,3.32097 -5.957,4.35387 -23.05605,21.7007 -27.37433,27.77101 -4.9004,6.88863 -13.64451,22.79113 -15.09261,35.26223 -0.54143,2.39922 -0.0559,-4.30822 -0.44971,-5.20793 z"
       style="fill:#7fd3f9;fill-opacity:1;stroke-width:0.93013865" />
  </g>
</svg>
